{
    "packages": {
        "classic": {
            "css": true,
            "included": true,
            "namespace": "Ext",
            "required": true,
            "requires": ["ext", "core"],
            "version": "6.2.0.981"
        },
        "cmd": {
            "current": "6.5.0.180",
            "version": "6.5.0.180"
        },
        "core": {
            "css": true,
            "included": true,
            "required": true,
            "requires": ["ext", "classic"],
            "version": "6.2.0.981"
        },
        "ext": {
            "css": true,
            "included": true,
            "license": "gpl",
            "namespace": "Ext",
            "required": true,
            "requires": [],
            "version": "6.2.0.981"
        },
        "font-awesome": {
            "css": true,
            "included": true,
            "namespace": "Ext",
            "required": true,
            "requires": ["ext", "core", "classic", "theme-base", "theme-neutral", "theme-neptune"],
            "theme": "theme-neptune",
            "version": "6.2.0.981"
        },
        "font-ext": {
            "css": true,
            "included": true,
            "namespace": "Ext",
            "required": true,
            "requires": ["ext", "core", "classic", "theme-base", "theme-neutral", "theme-neptune"],
            "theme": "theme-neptune",
            "version": "6.2.0.981"
        },
        "theme-base": {
            "css": true,
            "included": true,
            "namespace": "Ext",
            "required": true,
            "requires": ["ext", "core", "classic"],
            "version": "6.2.0.981"
        },
        "theme-neptune": {
            "css": true,
            "extend": "theme-neutral",
            "included": true,
            "namespace": "Ext",
            "required": true,
            "requires": ["ext", "core", "classic", "theme-base", "theme-neutral"],
            "version": "6.2.0.981"
        },
        "theme-neutral": {
            "css": true,
            "extend": "theme-base",
            "included": true,
            "namespace": "Ext",
            "required": true,
            "requires": ["ext", "core", "classic", "theme-base"],
            "version": "6.2.0.981"
        },
        "theme-triton": {
            "css": true,
            "extend": "theme-neptune",
            "included": true,
            "namespace": "Ext",
            "required": true,
            "requires": ["ext", "core", "classic", "theme-base", "theme-neutral", "theme-neptune", "font-awesome", "font-ext"],
            "version": "6.2.0.981"
        }
    },
    "js": [{
        "path": "/sencha-freelance-translation/main-translators/app.js"
    }],
    "css": [{
        "exclude": ["fashion"],
        "path": "/sencha-freelance-translation/main-translators/resources/main_translator-all.css"
    }],
    "cache": {
        "enable": false,
        "deltas": "/sencha-freelance-translation/main-translators/deltas"
    },
    "fashion": {
        "inliner": {
            "enable": false
        }
    },
    "name": "main_translator",
    "version": "1.0.0.0",
    "framework": "ext",
    "loader": {
        "cache": false,
        "cacheParam": "_dc"
    },
    "id": "239affea-8d9c-47d7-b63f-537fc4ac9237",
    "toolkit": "classic",
    "theme": "theme-triton",
    "profile": "classic",
    "hash": "ec46e526c3e9f951bf201b8333b7cb2acd9a759b",
    "resources": {
        "path": "/sencha-freelance-translation/main-translators/resources",
        "shared": "resources"
    }
}